%YAML 1.1
%TAG !u! tag:unity3d.com,2011:
--- !u!1386491679 &1
PresetManager:
  m_ObjectHideFlags: 0
  m_DefaultList:
  - type:
      m_NativeTypeID: 20
      m_ManagedTypePPtr: {fileID: 0}
      m_ManagedTypeFallback: 
    defaultPresets:
    - m_Preset: {fileID: 2655988077585873504, guid: bfcfc320427f8224bbb7a96f3d3aebad,
        type: 2}
  - type:
      m_NativeTypeID: 1006
      m_ManagedTypePPtr: {fileID: 0}
      m_ManagedTypeFallback: 
    defaultPresets:
    - m_Preset: {fileID: 2655988077585873504, guid: 246144f6eb9a945abae2dd4d5adf740e,
        type: 2}
