%YAML 1.1
%TAG !u! tag:unity3d.com,2011:
--- !u!78 &1
TagManager:
  serializedVersion: 2
  tags:
  - Book Page
  - Sidescroll View
  layers:
  - Default
  - TransparentFX
  - Ignore Raycast
  - 
  - Water
  - UI
  - 
  - 
  - Book
  - Characters
  - Combat UI
  - 
  - 
  - 
  - 
  - 
  - 
  - 
  - 
  - 
  - 
  - 
  - 
  - 
  - 
  - 
  - 
  - 
  - 
  - 
  - 
  - 
  m_SortingLayers:
  - name: True Background
    uniqueID: 1844552237
    locked: 0
  - name: Background Farthest
    uniqueID: 2348818707
    locked: 0
  - name: Background Middle 1
    uniqueID: 2158116589
    locked: 0
  - name: Background Middle 2
    uniqueID: 1050894357
    locked: 0
  - name: Background Middle 3
    uniqueID: 3022243953
    locked: 0
  - name: Background Middle 4
    uniqueID: 3923940851
    locked: 0
  - name: Background Closest
    uniqueID: 1841775635
    locked: 0
  - name: Default
    uniqueID: 0
    locked: 0
  - name: Characters
    uniqueID: 1221879445
    locked: 0
  - name: Foreground Grass
    uniqueID: 1096695073
    locked: 0
  - name: UI
    uniqueID: 926191913
    locked: 0
