%YAML 1.1
%TAG !u! tag:unity3d.com,2011:
--- !u!114 &11400000
MonoBehaviour:
  m_ObjectHideFlags: 0
  m_CorrespondingSourceObject: {fileID: 0}
  m_PrefabInstance: {fileID: 0}
  m_PrefabAsset: {fileID: 0}
  m_GameObject: {fileID: 0}
  m_Enabled: 1
  m_EditorHideFlags: 0
  m_Script: {fileID: 11500000, guid: 7cd1f25f1ab44f0eaefdb975cf737c7c, type: 3}
  m_Name: DoubleTake 1
  m_EditorClassIdentifier: 
  m_tweenAndAnimationSettingsDict:
    m_keys:
    - FlipAround
    m_values:
    - duration: 0.8
      startDelay: 0
      loopDelay: 0.25
      intensity: 1
      loops: 3
      easeCurve:
        serializedVersion: 2
        m_Curve: []
        m_PreInfinity: 2
        m_PostInfinity: 2
        m_RotationOrder: 4
