%YAML 1.1
%TAG !u! tag:unity3d.com,2011:
--- !u!114 &11400000
MonoBehaviour:
  m_ObjectHideFlags: 0
  m_CorrespondingSourceObject: {fileID: 0}
  m_PrefabInstance: {fileID: 0}
  m_PrefabAsset: {fileID: 0}
  m_GameObject: {fileID: 0}
  m_Enabled: 1
  m_EditorHideFlags: 0
  m_Script: {fileID: 11500000, guid: 7cd1f25f1ab44f0eaefdb975cf737c7c, type: 3}
  m_Name: ShortHop
  m_EditorClassIdentifier: 
  m_tweenAndAnimationSettingsDict:
    m_keys:
    - ShortHop
    m_values:
    - duration: 1
      startDelay: 0
      loopDelay: 0
      intensity: 0.5
      loops: -1
