%YAML 1.1
%TAG !u! tag:unity3d.com,2011:
--- !u!114 &11400000
MonoBehaviour:
  m_ObjectHideFlags: 0
  m_CorrespondingSourceObject: {fileID: 0}
  m_PrefabInstance: {fileID: 0}
  m_PrefabAsset: {fileID: 0}
  m_GameObject: {fileID: 0}
  m_Enabled: 1
  m_EditorHideFlags: 0
  m_Script: {fileID: 11500000, guid: 1e313867a773d4de697ab5c4a3ae9628, type: 3}
  m_Name: _Combined Views
  m_EditorClassIdentifier: 
  m_views:
  - {fileID: 11400000, guid: 2f077e8e7b74f46e1801b7cba7674be9, type: 2}
  - {fileID: 11400000, guid: 12ffdbe9d1655473bad9742c02e8e5fe, type: 2}
