%YAML 1.1
%TAG !u! tag:unity3d.com,2011:
--- !u!114 &11400000
MonoBehaviour:
  m_ObjectHideFlags: 0
  m_CorrespondingSourceObject: {fileID: 0}
  m_PrefabInstance: {fileID: 0}
  m_PrefabAsset: {fileID: 0}
  m_GameObject: {fileID: 0}
  m_Enabled: 1
  m_EditorHideFlags: 0
  m_Script: {fileID: 11500000, guid: 9c5c1941850a9fd47ac01d4c26644ae9, type: 3}
  m_Name: Curio Shop
  m_EditorClassIdentifier: 
  m_name: Curio Shop
  m_useSimpleValidation: 0
  m_inventory:
    m_itemStacksSerialized:
    - m_itemReference:
        m_id: -2389259636816589642
      m_amount: 3
    - m_itemReference:
        m_id: 7817164822905474231
      m_amount: 1
    - m_itemReference:
        m_id: -2143458437271992385
      m_amount: 1
    - m_itemReference:
        m_id: 8089707452182927472
      m_amount: 1
    - m_itemReference:
        m_id: -5111413414446120510
      m_amount: 5
    - m_itemReference:
        m_id: -448680047715346974
      m_amount: 5
    - m_itemReference:
        m_id: -4363574364238999862
      m_amount: 1
    - m_itemReference:
        m_id: 3185093550650753818
      m_amount: 2
    - m_itemReference:
        m_id: 2934571577725164437
      m_amount: 2
    - m_itemReference:
        m_id: 7994024884089568566
      m_amount: 1
  m_itemPreference:
    m_keys: []
    m_values: []
  m_tagPreference:
    m_keys: []
    m_values: []
  m_buyFromOthersMultiplier: 1
  m_sellToOthersMultiplier: 1
  m_minimalAcceptedTradeValue: 0
