%YAML 1.1
%TAG !u! tag:unity3d.com,2011:
--- !u!114 &11400000
MonoBehaviour:
  m_ObjectHideFlags: 0
  m_CorrespondingSourceObject: {fileID: 0}
  m_PrefabInstance: {fileID: 0}
  m_PrefabAsset: {fileID: 0}
  m_GameObject: {fileID: 0}
  m_Enabled: 1
  m_EditorHideFlags: 0
  m_Script: {fileID: 11500000, guid: 9c5c1941850a9fd47ac01d4c26644ae9, type: 3}
  m_Name: Shop 1
  m_EditorClassIdentifier: 
  m_name: Shop 1
  m_useSimpleValidation: 1
  m_inventory:
    m_itemStacksSerialized:
    - m_itemReference:
        m_id: 7994024884089568566
      m_amount: 5
    - m_itemReference:
        m_id: -5111413414446120510
      m_amount: 20
    - m_itemReference:
        m_id: -3836644795865668150
      m_amount: 6
    - m_itemReference:
        m_id: 1361874345848082323
      m_amount: 1
    - m_itemReference:
        m_id: -4865424403478122640
      m_amount: 9
  m_itemPreference:
    m_keys:
    - m_id: -4865424403478122640
    - m_id: 1361874345848082323
    - m_id: -589864679193004552
    - m_id: -5111413414446120510
    m_values:
    - 1
    - 1
    - 1
    - 1
  m_tagPreference:
    m_keys: []
    m_values: []
  m_buyFromOthersMultiplier: 0.9
  m_sellToOthersMultiplier: 1.1
  m_minimalAcceptedTradeValue: 0
