%YAML 1.1
%TAG !u! tag:unity3d.com,2011:
--- !u!114 &11400000
MonoBehaviour:
  m_ObjectHideFlags: 0
  m_CorrespondingSourceObject: {fileID: 0}
  m_PrefabInstance: {fileID: 0}
  m_PrefabAsset: {fileID: 0}
  m_GameObject: {fileID: 0}
  m_Enabled: 1
  m_EditorHideFlags: 0
  m_Script: {fileID: 11500000, guid: 328644c77fd844ae8abd4b05ec6d760f, type: 3}
  m_Name: _Emote List
  m_EditorClassIdentifier: 
  m_emoteBubblePrefab: {fileID: 1772301710959325768, guid: 2a7e39b7f803644ad82b8164cf0dfd39,
    type: 3}
  m_actorEmoteController: {fileID: 8000692684712039334, guid: 7ee960f7a2d6a48f28c895a7eb4ba15f,
    type: 3}
  emoteDefinitions:
    m_keys: 5f90ce23f2dbc73d230cf1ee98d2fcb6b923e08fc4d6f264ca33ed30336054e576b384c3eea7387c661096b223c9baf7b3e783021dd42f04b3e783021dd43cb9881096b223c9cdf0dab3ed303360f3ffb3e783021cc43db8
    m_values:
    - {fileID: 11400000, guid: a6a01e0a9993d461ab27ac285f3da86d, type: 2}
    - {fileID: 11400000, guid: bf23ed82b90524c4c9f58522134ab5dc, type: 2}
    - {fileID: 11400000, guid: 59e39d314ef0f504f846093d0da42afa, type: 2}
    - {fileID: 11400000, guid: 52b4086177ca7f44c951d67f02cfd66f, type: 2}
    - {fileID: 11400000, guid: ce8fa908258941f42a268eaf397ff31d, type: 2}
    - {fileID: 11400000, guid: 47818a49d6d140d4c88cc74f770a5b32, type: 2}
    - {fileID: 11400000, guid: ffda1591c6e7d32478d442998670bd73, type: 2}
    - {fileID: 11400000, guid: a44508b4c09193d4aa146cf1d299ecb9, type: 2}
    - {fileID: 11400000, guid: 4b7cd99f97948594f96a946ca7ef12cd, type: 2}
    - {fileID: 11400000, guid: e7a07a41abf4129418a2873a022cc29e, type: 2}
    - {fileID: 11400000, guid: 2a261ede83a12c94e879798e034437f3, type: 2}
