%YAML 1.1
%TAG !u! tag:unity3d.com,2011:
--- !u!114 &11400000
MonoBehaviour:
  m_ObjectHideFlags: 0
  m_CorrespondingSourceObject: {fileID: 0}
  m_PrefabInstance: {fileID: 0}
  m_PrefabAsset: {fileID: 0}
  m_GameObject: {fileID: 0}
  m_Enabled: 1
  m_EditorHideFlags: 0
  m_Script: {fileID: 11500000, guid: 3ff4ba64ab5ab40edb35573963adacd7, type: 3}
  m_Name: Virtual Scene Manager
  m_EditorClassIdentifier: 
  m_sceneNames:
    m_keys: f9bc6d82fe7a28eb1fc4b9b0a916448d
    m_values:
    - Game Scene
    - Book Scene
