%YAML 1.1
%TAG !u! tag:unity3d.com,2011:
--- !u!1001 &5950164667074383025
PrefabInstance:
  m_ObjectHideFlags: 0
  serializedVersion: 2
  m_Modification:
    m_TransformParent: {fileID: 0}
    m_Modifications:
    - target: {fileID: 9163155555943080927, guid: 2af9774dd16f34002aa4faac62eec54b,
        type: 3}
      propertyPath: m_Name
      value: Player Combat Actor
      objectReference: {fileID: 0}
    - target: {fileID: 9057293957377932926, guid: 2af9774dd16f34002aa4faac62eec54b,
        type: 3}
      propertyPath: m_LocalPosition.x
      value: 0
      objectReference: {fileID: 0}
    - target: {fileID: 9057293957377932926, guid: 2af9774dd16f34002aa4faac62eec54b,
        type: 3}
      propertyPath: m_LocalPosition.y
      value: 0
      objectReference: {fileID: 0}
    - target: {fileID: 9057293957377932926, guid: 2af9774dd16f34002aa4faac62eec54b,
        type: 3}
      propertyPath: m_LocalPosition.z
      value: 0
      objectReference: {fileID: 0}
    - target: {fileID: 9057293957377932926, guid: 2af9774dd16f34002aa4faac62eec54b,
        type: 3}
      propertyPath: m_LocalRotation.x
      value: 0
      objectReference: {fileID: 0}
    - target: {fileID: 9057293957377932926, guid: 2af9774dd16f34002aa4faac62eec54b,
        type: 3}
      propertyPath: m_LocalRotation.y
      value: 0
      objectReference: {fileID: 0}
    - target: {fileID: 9057293957377932926, guid: 2af9774dd16f34002aa4faac62eec54b,
        type: 3}
      propertyPath: m_LocalRotation.z
      value: 0
      objectReference: {fileID: 0}
    - target: {fileID: 9057293957377932926, guid: 2af9774dd16f34002aa4faac62eec54b,
        type: 3}
      propertyPath: m_LocalRotation.w
      value: 1
      objectReference: {fileID: 0}
    - target: {fileID: 9057293957377932926, guid: 2af9774dd16f34002aa4faac62eec54b,
        type: 3}
      propertyPath: m_RootOrder
      value: 0
      objectReference: {fileID: 0}
    - target: {fileID: 9057293957377932926, guid: 2af9774dd16f34002aa4faac62eec54b,
        type: 3}
      propertyPath: m_LocalEulerAnglesHint.x
      value: 0
      objectReference: {fileID: 0}
    - target: {fileID: 9057293957377932926, guid: 2af9774dd16f34002aa4faac62eec54b,
        type: 3}
      propertyPath: m_LocalEulerAnglesHint.y
      value: 0
      objectReference: {fileID: 0}
    - target: {fileID: 9057293957377932926, guid: 2af9774dd16f34002aa4faac62eec54b,
        type: 3}
      propertyPath: m_LocalEulerAnglesHint.z
      value: 0
      objectReference: {fileID: 0}
    - target: {fileID: 7467217562832558406, guid: 2af9774dd16f34002aa4faac62eec54b,
        type: 3}
      propertyPath: m_Sprite
      value: 
      objectReference: {fileID: 21300000, guid: f2ecdf936285448bc83849ea8a88d3f0,
        type: 3}
    - target: {fileID: 6350208106017573218, guid: 2af9774dd16f34002aa4faac62eec54b,
        type: 3}
      propertyPath: m_SpriteTilingProperty.pivot.y
      value: 0
      objectReference: {fileID: 0}
    - target: {fileID: 6350208106017573218, guid: 2af9774dd16f34002aa4faac62eec54b,
        type: 3}
      propertyPath: m_SpriteTilingProperty.oldSize.x
      value: 0.37
      objectReference: {fileID: 0}
    - target: {fileID: 6350208106017573218, guid: 2af9774dd16f34002aa4faac62eec54b,
        type: 3}
      propertyPath: m_SpriteTilingProperty.oldSize.y
      value: 0.54
      objectReference: {fileID: 0}
    - target: {fileID: 6350208106017573218, guid: 2af9774dd16f34002aa4faac62eec54b,
        type: 3}
      propertyPath: m_Offset.y
      value: 0.27
      objectReference: {fileID: 0}
    - target: {fileID: 6350208106017573218, guid: 2af9774dd16f34002aa4faac62eec54b,
        type: 3}
      propertyPath: m_Size.x
      value: 0.37
      objectReference: {fileID: 0}
    - target: {fileID: 6350208106017573218, guid: 2af9774dd16f34002aa4faac62eec54b,
        type: 3}
      propertyPath: m_Size.y
      value: 0.54
      objectReference: {fileID: 0}
    m_RemovedComponents: []
  m_SourcePrefab: {fileID: 100100000, guid: 2af9774dd16f34002aa4faac62eec54b, type: 3}
