%YAML 1.1
%TAG !u! tag:unity3d.com,2011:
--- !u!114 &11400000
MonoBehaviour:
  m_ObjectHideFlags: 0
  m_CorrespondingSourceObject: {fileID: 0}
  m_PrefabInstance: {fileID: 0}
  m_PrefabAsset: {fileID: 0}
  m_GameObject: {fileID: 0}
  m_Enabled: 1
  m_EditorHideFlags: 0
  m_Script: {fileID: 11500000, guid: 91aff29bd9914457845711c6464a0e13, type: 3}
  m_Name: SimpleBob
  m_EditorClassIdentifier: 
  m_tweenAndAnimationSettingsDict:
    m_keys:
    - BobY
    m_values:
    - duration: 3
      startDelay: 0
      loopDelay: 0
      intensity: 0.23
      loops: -1
