%YAML 1.1
%TAG !u! tag:unity3d.com,2011:
--- !u!114 &11400000
MonoBehaviour:
  m_ObjectHideFlags: 0
  m_CorrespondingSourceObject: {fileID: 0}
  m_PrefabInstance: {fileID: 0}
  m_PrefabAsset: {fileID: 0}
  m_GameObject: {fileID: 0}
  m_Enabled: 1
  m_EditorHideFlags: 0
  m_Script: {fileID: 11500000, guid: 9ffe5e70638b49619b49c54a24776d29, type: 3}
  m_Name: Happy
  m_EditorClassIdentifier: 
  m_editorAutoUpdateVisualizationType: 1
  m_emoteVisualizationType: 1
  m_emoteName: happy
  m_bubbleEmoteSprite: {fileID: 21300000, guid: 0d3ab1ada08b275458b5527f4545f461,
    type: 3}
  m_bubbleTweenAnimation: {fileID: 11400000, guid: 61aaaf4a50762466097c0f2c549b4459,
    type: 2}
  m_actorTweenAnimation: {fileID: 0}
