%YAML 1.1
%TAG !u! tag:unity3d.com,2011:
--- !u!114 &11400000
MonoBehaviour:
  m_ObjectHideFlags: 0
  m_CorrespondingSourceObject: {fileID: 0}
  m_PrefabInstance: {fileID: 0}
  m_PrefabAsset: {fileID: 0}
  m_GameObject: {fileID: 0}
  m_Enabled: 1
  m_EditorHideFlags: 0
  m_Script: {fileID: 11500000, guid: 9ffe5e70638b49619b49c54a24776d29, type: 3}
  m_Name: Love
  m_EditorClassIdentifier: 
  m_editorAutoUpdateVisualizationType: 1
  m_emoteVisualizationType: 1
  m_emoteName: love
  m_bubbleEmoteSprite: {fileID: 21300000, guid: ae16690c4b8773f41b584b4528985026,
    type: 3}
  m_bubbleTweenAnimation: {fileID: 11400000, guid: dd14e2abcb52644f99ecfef131aeaa6f,
    type: 2}
  m_actorTweenAnimation: {fileID: 0}
